%YAML 1.1
%TAG !u! tag:unity3d.com,2011:
--- !u!1045 &1
EditorBuildSettings:
  m_ObjectHideFlags: 0
  serializedVersion: 2
  m_Scenes:
  - enabled: 1
    path: Assets/Scenes/MainScene.unity
    guid: 01e6ffe9ee31f2d45b85689e057a0cfb
  - enabled: 1
    path: Assets/Scenes/GYM.unity
    guid: 200fb7260f0893947be32f3d7dcf448c
